<?xml version="1.0" encoding="utf-8"?>
<!-- Generator: Adobe Illustrator 23.0.0, SVG Export Plug-In . SVG Version: 6.00 Build 0)  -->
<svg version="1.1" id="Layer_1" xmlns="http://www.w3.org/2000/svg" xmlns:xlink="http://www.w3.org/1999/xlink" x="0px" y="0px"
	 viewBox="0 0 100.69 19.48" style="enable-background:new 0 0 100.69 19.48;" xml:space="preserve">
<path d="M25.96,139.79h4.29v-3.48H18.25v3.48h4.26v15.6h3.46V139.79L25.96,139.79z M41.16,155.39h3.91l-3.75-7.88
	c2.36-1.13,2.87-3.59,2.87-4.96v-0.83c0-1.74-0.91-5.41-5.55-5.41h-5.98v19.08h3.48v-7.4h1.58L41.16,155.39L41.16,155.39z
	 M40.68,141.8v0.72c0,1.8-1.29,2.04-2.04,2.04h-2.49v-4.8h2.44C39.34,139.76,40.68,140.03,40.68,141.8L40.68,141.8z M51.13,136.31
	h-3.49v19.08h3.49V136.31L51.13,136.31z M54.99,155.39h11.04v-3.46h-7.58v-4.85h7.02v-3.46h-7.02v-3.86h7.58v-3.46H54.99V155.39
	L54.99,155.39z M77.26,155.39h3.4v-19.08h-3.43v11.26l-4.69-11.26h-3.46v19.08h3.48v-10.85L77.26,155.39L77.26,155.39z M92.7,155.39
	h3.4v-19.08h-3.43v11.26l-4.69-11.26h-3.46v19.08h3.48v-10.85L92.7,155.39L92.7,155.39z M103.45,136.31h-3.49v19.08h3.49V136.31
	L103.45,136.31z M116.66,155.39h3.57l-5.09-19.08h-4.29l-5.01,19.08h3.59l1.13-4.37h4.99L116.66,155.39L116.66,155.39z
	 M113.07,140.86l1.61,6.73h-3.3L113.07,140.86L113.07,140.86z M122.61,155.39h11.02v-3.46h-7.56v-15.62h-3.46V155.39L122.61,155.39z
	"/>
<path d="M29.05,127.11h3.56l-5.09-19.08h-4.29l-5.01,19.08h3.59l1.13-4.37h4.98L29.05,127.11L29.05,127.11z M25.45,112.59l1.61,6.73
	h-3.3L25.45,112.59L25.45,112.59z M43.49,127.11h3.91l-3.75-7.88c2.36-1.13,2.87-3.59,2.87-4.96v-0.83c0-1.74-0.91-5.41-5.55-5.41
	H35v19.08h3.48v-7.4h1.58L43.49,127.11L43.49,127.11z M43.01,113.52v0.72c0,1.8-1.29,2.04-2.04,2.04h-2.49v-4.8h2.44
	C41.67,111.49,43.01,111.75,43.01,113.52L43.01,113.52z M61.21,121.32H57.7c0,2.22-1.53,2.55-2.22,2.55c-0.75,0-2.31-0.27-2.31-2.2
	v-8.2c0-1.9,1.55-2.14,2.31-2.14c0.7,0,2.22,0.32,2.22,2.49h3.51c0-1.96-1.31-5.92-5.73-5.92c-4.61,0-5.76,3.62-5.76,5.39v8.52
	c0,1.82,1.26,5.55,5.74,5.55C60,127.35,61.21,123.65,61.21,121.32L61.21,121.32z M72.6,127.11h3.51v-19.08H72.6v7.37h-4.82v-7.37
	h-3.48v19.08h3.48v-8.23h4.82V127.11L72.6,127.11z M83.45,108.03h-3.48v19.08h3.48V108.03L83.45,108.03z M93.58,111.51h4.29v-3.48
	H85.86v3.48h4.26v15.6h3.46V111.51L93.58,111.51z M100.28,127.11h11.04v-3.46h-7.59v-4.85h7.02v-3.46h-7.02v-3.86h7.59v-3.46h-11.04
	V127.11L100.28,127.11z M125.61,121.32h-3.51c0,2.22-1.53,2.55-2.22,2.55c-0.75,0-2.3-0.27-2.3-2.2v-8.2c0-1.9,1.55-2.14,2.3-2.14
	c0.7,0,2.22,0.32,2.22,2.49h3.51c0-1.96-1.31-5.92-5.73-5.92c-4.61,0-5.76,3.62-5.76,5.39v8.52c0,1.82,1.26,5.55,5.73,5.55
	C124.4,127.35,125.61,123.65,125.61,121.32L125.61,121.32z M134.96,111.51h4.29v-3.48h-12.01v3.48h4.26v15.6h3.46V111.51
	L134.96,111.51z M152.89,121.83v-13.8h-3.48v13.78c0,1.79-1.53,2.06-2.25,2.06c-0.75,0-2.28-0.27-2.28-2.06v-13.78h-3.48v13.78
	c0,1.93,1.15,5.55,5.76,5.55C151.77,127.35,152.89,123.76,152.89,121.83L152.89,121.83z M164.98,127.11h3.91l-3.75-7.88
	c2.36-1.13,2.87-3.59,2.87-4.96v-0.83c0-1.74-0.91-5.41-5.55-5.41h-5.98v19.08h3.48v-7.4h1.58L164.98,127.11L164.98,127.11z
	 M164.5,113.52v0.72c0,1.8-1.29,2.04-2.04,2.04h-2.49v-4.8h2.44C163.16,111.49,164.5,111.75,164.5,113.52L164.5,113.52z
	 M171.47,127.11h11.04v-3.46h-7.58v-4.85h7.02v-3.46h-7.02v-3.86h7.58v-3.46h-11.04V127.11L171.47,127.11z"/>
<path d="M11.9,13.96c0-2.25-1.07-4.05-3.11-5.15c-0.72-0.4-1.61-0.83-3.91-2.01C4.15,6.43,3.75,5.9,3.75,5.25
	c0-1.18,0.96-1.82,2.14-1.82c1.31,0,2.28,0.88,2.28,2.47h3.51c0-3.4-2.36-5.9-5.79-5.9c-3.3,0-5.6,2.14-5.6,5.2
	c0,2.01,1.18,3.78,2.73,4.56c2.12,1.07,3.4,1.72,4.13,2.15c0.75,0.43,1.31,1.04,1.31,2.01c0,1.23-1.02,2.12-2.63,2.12
	c-1.37,0-2.38-0.91-2.38-2.57H0c0,3.43,2.3,6.03,5.87,6.03C9.27,19.48,11.9,17.15,11.9,13.96L11.9,13.96z M23.29,19.24h3.51V0.16
	h-3.51v7.37h-4.82V0.16h-3.48v19.08h3.48v-8.23h4.82V19.24L23.29,19.24z M40.01,19.24h3.57L38.49,0.16H34.2l-5.01,19.08h3.59
	l1.12-4.37h4.99L40.01,19.24L40.01,19.24z M36.42,4.72l1.61,6.73h-3.3L36.42,4.72L36.42,4.72z M54.46,19.24h3.91l-3.75-7.88
	c2.36-1.13,2.87-3.59,2.87-4.96V5.57c0-1.74-0.91-5.41-5.55-5.41h-5.98v19.08h3.48v-7.4h1.58L54.46,19.24L54.46,19.24z M53.98,5.66
	v0.72c0,1.79-1.29,2.04-2.04,2.04h-2.49v-4.8h2.44C52.64,3.62,53.98,3.89,53.98,5.66L53.98,5.66z M69.84,13.99V0.16h-8.68v3.46h5.23
	v10.53c0,1.55-1.02,1.85-1.77,1.85c-0.78,0-1.8-0.38-1.8-2.52h-3.48c0,3.56,1.93,6,5.25,6C67.94,19.48,69.84,17.45,69.84,13.99
	L69.84,13.99z M82.92,19.24h3.57L81.39,0.16h-4.29L72.1,19.24h3.59l1.13-4.37h4.99L82.92,19.24L82.92,19.24z M79.33,4.72l1.61,6.73
	h-3.3L79.33,4.72L79.33,4.72z M97.18,19.24h3.51V0.16h-3.51v7.37h-4.82V0.16h-3.48v19.08h3.48v-8.23h4.82V19.24L97.18,19.24z"/>
</svg>
