<?xml version="1.0" encoding="utf-8"?>
<!-- Generator: Adobe Illustrator 23.0.0, SVG Export Plug-In . SVG Version: 6.00 Build 0)  -->
<svg version="1.1" id="Layer_1" xmlns="http://www.w3.org/2000/svg" xmlns:xlink="http://www.w3.org/1999/xlink" x="0px" y="0px"
	 viewBox="0 0 164.29 19.46" style="enable-background:new 0 0 164.29 19.46;" xml:space="preserve">
<path d="M25.96,139.79h4.29v-3.48H18.25v3.48h4.26v15.6h3.46V139.79L25.96,139.79z M41.16,155.39h3.91l-3.75-7.88
	c2.36-1.13,2.87-3.59,2.87-4.96v-0.83c0-1.74-0.91-5.41-5.55-5.41h-5.98v19.08h3.48v-7.4h1.58L41.16,155.39L41.16,155.39z
	 M40.68,141.8v0.72c0,1.8-1.29,2.04-2.04,2.04h-2.49v-4.8h2.44C39.34,139.76,40.68,140.03,40.68,141.8L40.68,141.8z M51.13,136.31
	h-3.49v19.08h3.49V136.31L51.13,136.31z M54.99,155.39h11.04v-3.46h-7.58v-4.85h7.02v-3.46h-7.02v-3.86h7.58v-3.46H54.99V155.39
	L54.99,155.39z M77.26,155.39h3.4v-19.08h-3.43v11.26l-4.69-11.26h-3.46v19.08h3.48v-10.85L77.26,155.39L77.26,155.39z M92.7,155.39
	h3.4v-19.08h-3.43v11.26l-4.69-11.26h-3.46v19.08h3.48v-10.85L92.7,155.39L92.7,155.39z M103.45,136.31h-3.49v19.08h3.49V136.31
	L103.45,136.31z M116.66,155.39h3.57l-5.09-19.08h-4.29l-5.01,19.08h3.59l1.13-4.37h4.99L116.66,155.39L116.66,155.39z
	 M113.07,140.86l1.61,6.73h-3.3L113.07,140.86L113.07,140.86z M122.61,155.39h11.02v-3.46h-7.56v-15.62h-3.46V155.39L122.61,155.39z
	"/>
<path d="M10.83,19.22h3.56L9.3,0.13H5.01L0,19.22h3.59l1.13-4.37H9.7L10.83,19.22L10.83,19.22z M7.24,4.69l1.61,6.73h-3.3L7.24,4.69
	L7.24,4.69z M25.27,19.22h3.91l-3.75-7.88c2.36-1.13,2.87-3.59,2.87-4.96V5.55c0-1.74-0.91-5.41-5.55-5.41h-5.98v19.08h3.48v-7.4
	h1.58L25.27,19.22L25.27,19.22z M24.79,5.63v0.72c0,1.8-1.29,2.04-2.04,2.04h-2.49v-4.8h2.44C23.45,3.59,24.79,3.86,24.79,5.63
	L24.79,5.63z M42.99,13.43h-3.51c0,2.22-1.53,2.55-2.22,2.55c-0.75,0-2.31-0.27-2.31-2.2v-8.2c0-1.9,1.55-2.14,2.31-2.14
	c0.7,0,2.22,0.32,2.22,2.49h3.51c0-1.96-1.31-5.92-5.73-5.92c-4.61,0-5.76,3.62-5.76,5.39v8.52c0,1.82,1.26,5.55,5.74,5.55
	C41.78,19.46,42.99,15.76,42.99,13.43L42.99,13.43z M54.38,19.22h3.51V0.13h-3.51V7.5h-4.82V0.13h-3.48v19.08h3.48v-8.23h4.82V19.22
	L54.38,19.22z M65.23,0.13h-3.48v19.08h3.48V0.13L65.23,0.13z M75.36,3.62h4.29V0.13H67.65v3.48h4.26v15.6h3.46V3.62L75.36,3.62z
	 M82.06,19.22h11.04v-3.46h-7.59v-4.85h7.02V7.45h-7.02V3.59h7.59V0.13H82.06V19.22L82.06,19.22z M107.39,13.43h-3.51
	c0,2.22-1.53,2.55-2.22,2.55c-0.75,0-2.3-0.27-2.3-2.2v-8.2c0-1.9,1.55-2.14,2.3-2.14c0.7,0,2.22,0.32,2.22,2.49h3.51
	c0-1.96-1.31-5.92-5.73-5.92c-4.61,0-5.76,3.62-5.76,5.39v8.52c0,1.82,1.26,5.55,5.73,5.55C106.18,19.46,107.39,15.76,107.39,13.43
	L107.39,13.43z M116.74,3.62h4.29V0.13h-12.01v3.48h4.26v15.6h3.46V3.62L116.74,3.62z M134.68,13.94V0.13h-3.48v13.78
	c0,1.79-1.53,2.06-2.25,2.06c-0.75,0-2.28-0.27-2.28-2.06V0.13h-3.48v13.78c0,1.93,1.15,5.55,5.76,5.55
	C133.55,19.46,134.68,15.87,134.68,13.94L134.68,13.94z M146.76,19.22h3.91l-3.75-7.88c2.36-1.13,2.87-3.59,2.87-4.96V5.55
	c0-1.74-0.91-5.41-5.55-5.41h-5.98v19.08h3.48v-7.4h1.58L146.76,19.22L146.76,19.22z M146.28,5.63v0.72c0,1.8-1.29,2.04-2.04,2.04
	h-2.49v-4.8h2.44C144.94,3.59,146.28,3.86,146.28,5.63L146.28,5.63z M153.25,19.22h11.04v-3.46h-7.58v-4.85h7.02V7.45h-7.02V3.59
	h7.58V0.13h-11.04V19.22L153.25,19.22z"/>
</svg>
