<?xml version="1.0" encoding="utf-8"?>
<!-- Generator: Adobe Illustrator 23.0.0, SVG Export Plug-In . SVG Version: 6.00 Build 0)  -->
<svg version="1.1" id="Layer_1" xmlns="http://www.w3.org/2000/svg" xmlns:xlink="http://www.w3.org/1999/xlink" x="0px" y="0px"
	 viewBox="0 0 88.42 28.22" style="enable-background:new 0 0 88.42 28.22;" xml:space="preserve">
<path d="M0,22.89c1.61,1.61,4.1,2.39,7.42,2.39h9.65V13.4c-0.03-2.06,1.05-3.43,3.27-3.43h2.14V21.9h6.59v-3.43h-3.11V6.75h-5.01
	c-4.74,0-7.37,2.36-7.37,7.26v7.83H7.08c-2.04,0-3.65-0.56-5.15-1.8L0,22.89L0,22.89z M8.34,10.77c-1.18,0-2.09,0.78-2.09,1.9
	c0,1.26,0.99,1.9,2.09,1.9c1.12,0,2.09-0.64,2.09-1.9C10.43,11.55,9.52,10.77,8.34,10.77L8.34,10.77z M8.34,15.84
	c-1.18,0-2.09,0.78-2.09,1.9c0,1.26,0.99,1.9,2.09,1.9c1.12,0,2.09-0.64,2.09-1.9C10.43,16.62,9.52,15.84,8.34,15.84L8.34,15.84z
	 M36.02,0.16h-3.46v18.31h-4.29v3.43h7.75V0.16L36.02,0.16z M47.97,18.47h-4.53V0.16h-3.46V21.9h7.99V18.47L47.97,18.47z
	 M51.81,3.91c1.13,0,2.12-0.64,2.12-1.96c0-1.18-0.94-1.96-2.12-1.96c-1.23,0-2.17,0.78-2.17,1.96C49.64,3.27,50.65,3.91,51.81,3.91
	L51.81,3.91z M56.63,18.47h-3.14V6.75h-3.46v11.71h-2.6v3.43h9.19V18.47L56.63,18.47z M56.09,18.47v3.43h8.68V6.75h-3.46v11.71
	H56.09L56.09,18.47z M57.84,28.22c1.13,0,2.06-0.64,2.06-1.9c0-1.13-0.89-1.9-2.06-1.9c-1.18,0-2.09,0.78-2.09,1.9
	C55.75,27.58,56.74,28.22,57.84,28.22L57.84,28.22z M63.25,28.22c1.13,0,2.04-0.64,2.04-1.9c0-1.13-0.83-1.9-2.04-1.9
	c-1.18,0-2.06,0.78-2.06,1.9C61.19,27.58,62.15,28.22,63.25,28.22L63.25,28.22z M77.05,21.9v-3.43h-3V6.75h-3.49v15.09
	c0,2.12-0.96,2.84-2.41,2.84c-0.4,0-0.99-0.11-1.37-0.27l-0.29,3c0.54,0.21,1.26,0.38,2.01,0.38c3.48,0,5.39-1.34,5.55-5.9H77.05
	L77.05,21.9z M80.91,3.99c1.12,0,2.09-0.64,2.09-1.9c0-1.13-0.91-1.9-2.09-1.9c-1.18,0-2.09,0.78-2.09,1.9
	C78.82,3.35,79.81,3.99,80.91,3.99L80.91,3.99z M86.33,3.99c1.13,0,2.09-0.64,2.09-1.9c0-1.13-0.89-1.9-2.09-1.9
	c-1.18,0-2.09,0.78-2.09,1.9C84.24,3.35,85.23,3.99,86.33,3.99L86.33,3.99z M76.52,18.47v3.43h8.68V6.75h-3.46v11.71H76.52
	L76.52,18.47z"/>
</svg>
